# Blender v2.83.2 OBJ File: 'graat.blend'
# www.blender.org
mtllib graat_trian.mtl
o Graat_graat
v -1.000004 0.000000 0.000001
v -0.799235 0.026527 0.000001
v -0.611642 0.092118 0.000001
v -0.438754 0.198632 0.000001
v -0.287217 0.341976 0.000001
v -0.162854 0.516641 0.000001
v -0.070444 0.715914 0.000000
v -0.977262 -0.063095 0.000001
v -0.922073 -0.279910 0.000001
v -0.831247 -0.480149 0.000001
v -0.708274 -0.656116 0.000001
v -0.557879 -0.801050 0.000001
v -0.385844 -0.909381 0.000001
v -0.198778 -0.976946 0.000001
v 0.000000 -1.000003 0.000000
v 0.191387 -0.981056 0.000000
v 0.379493 -0.917444 0.000000
v 0.553217 -0.812756 0.000000
v 0.705885 -0.671014 0.000000
v 0.831627 -0.497667 0.000000
v 0.925614 -0.299375 0.000000
v 0.984232 -0.083758 0.000000
v 0.074447 0.708553 0.000000
v 0.165273 0.508315 0.000000
v 0.288246 0.332347 0.000000
v 0.438640 0.187413 0.000000
v 0.610676 0.079082 0.000000
v 0.797741 0.017248 0.000000
v 1.000003 0.000000 0.000000
v 0.000000 1.000000 0.000000
vt 0.036364 0.360415
vt 0.098185 0.513546
vt 0.008588 0.468761
vt 0.464969 0.858045
vt 0.537890 0.854367
vt 0.501567 1.000000
vt 0.418461 0.758465
vt 0.583601 0.754304
vt 0.355872 0.671182
vt 0.645490 0.666370
vt 0.279607 0.599550
vt 0.721180 0.593944
vt 0.498474 0.000000
vt 0.778844 0.094142
vt 0.807762 0.539809
vt 0.400382 0.012094
vt 0.192597 0.546324
vt 0.219654 0.099992
vt 0.306236 0.045857
vt 0.901908 0.506046
vt 0.995764 0.458435
vt 1.000000 0.493952
vt 0.966263 0.350688
vt 0.596743 0.010040
vt 0.691412 0.041828
vt 0.000000 0.502479
vt 0.918962 0.251598
vt 0.855678 0.164973
vt 0.143964 0.172418
vt 0.082074 0.260352
vn 0.0000 -0.0000 1.0000
usemtl Material
s off
f 9/1/1 2/2/1 8/3/1
f 7/4/1 23/5/1 30/6/1
f 7/4/1 6/7/1 23/5/1
f 23/5/1 6/7/1 24/8/1
f 6/7/1 5/9/1 24/8/1
f 24/8/1 5/9/1 25/10/1
f 5/9/1 4/11/1 25/10/1
f 25/10/1 4/11/1 26/12/1
f 4/11/1 15/13/1 26/12/1
f 26/12/1 18/14/1 27/15/1
f 4/11/1 14/16/1 15/13/1
f 3/17/1 12/18/1 4/11/1
f 13/19/1 14/16/1 4/11/1
f 28/20/1 22/21/1 29/22/1
f 4/11/1 12/18/1 13/19/1
f 27/15/1 21/23/1 28/20/1
f 26/12/1 16/24/1 17/25/1
f 8/3/1 2/2/1 1/26/1
f 2/2/1 9/1/1 3/17/1
f 17/25/1 18/14/1 26/12/1
f 28/20/1 21/23/1 22/21/1
f 21/23/1 27/15/1 20/27/1
f 20/27/1 27/15/1 19/28/1
f 19/28/1 27/15/1 18/14/1
f 16/24/1 26/12/1 15/13/1
f 12/18/1 3/17/1 11/29/1
f 11/29/1 3/17/1 10/30/1
f 10/30/1 3/17/1 9/1/1
